201001 Raju B.Tech ECE Calicut 88 M
201002 Thomas B.Tech ME Calicut 77 M
201003 James B.Tech EEE Trichur 66 M
201004 Siraj B.Tech ECE Kannur 53 M
201006 Priya B.Tech CS Kannur 77 F
201007 Shann B.Tech CS ERN 77 M
201008 Sini B.Tech CS ERN 66 F
201009 Akash B.Tech CS ERN 68 M
201010 Rakesh B.Tech EEE ERN 68 M
